T: America the Beautiful
C: Samuel Ward
M: 4/4
L: 1/4
K: C clef=treble-8
"^mf"G | G>E EG | G>D DE | FG  AB | G3 ||
G | G>E EG | G>D Dd | ^cd eA | d3 ||
"^f"G | e>e d"^,"yc | c>B B"^,"yc | dB AG | c3 ||
c | c>A Ac | c>G GG | Ac Gd | c3 |]

