
X: 1
T: Basic Guitar Chords
T: Version 1.3
M: 4/4
L: 1/4
K: C
%
!C!"C"C4|!Cm!"Cm"C4|!C7!"C7"C4|!Cm7!"Cm7"C4|!Cmaj7!"Cmaj7"C4|!Csus4!"Csus4"C4|
!C#!"C#"^C4|!C#m!"C#m"^C4|!C#7!"C#7"^C4|!C#m7!"C#m7"^C4|!C#maj7!"C#maj7"^C4|!C#sus4!"C#sus4"^C4|
!Db!"Db"_D4|!Dbm!"Dbm"_D4|!Db7!"Db7"_D4|!Dbm7!"Dbm7"_D4|!Dbmaj7!"Dbmaj7"_D4|!Dbsus4!"Dbsus4"_D4|
!D!"D"D4|!Dm!"Dm"D4|!D7!"D7"D4|!Dm7!"Dm7"D4|!Dmaj7!"Dmaj7"D4|!Dsus4!"Dsus4"D4|
!D#!"D#"^D4|!D#m!"D#m"^D4|!D#7!"D#7"^D4|!D#m7!"D#m7"^D4|!D#maj7!"D#maj7"^D4|!D#sus4!"D#sus4"^D4|
!Eb!"Eb"_E4|!Ebm!"Ebm"_E4|!Eb7!"Eb7"_E4|!Ebm7!"Ebm7"_E4|!Ebmaj7!"Ebmaj7"_E4|!Ebsus4!"Ebsus4"_E4|
!E!"E"E4|!Em!"Em"E4|!E7!"E7"E4|!Em7!"Em7"E4|!Emaj7!"Emaj7"E4|!Esus4!"Esus4"E4|
!F!"F"F4|!Fm!"Fm"F4|!F7!"F7"F4|!Fm7!"Fm7"F4|!Fmaj7!"Fmaj7"F4|!Fsus4!"Fsus4"F4|
!F#!"F#"^F4|!F#m!"F#m"^F4|!F#7!"F#7"^F4|!F#m7!"F#m7"^F4|!F#maj7!"F#maj7"^F4|!F#sus4!"F#sus4"^F4|
!Gb!"Gb"_G4|!Gbm!"Gbm"_G4|!Gb7!"Gb7"_G4|!Gbm7!"Gbm7"_G4|!Gbmaj7!"Gbmaj7"_G4|!Gbsus4!"Gbsus4"_G4|
!G!"G"G4|!Gm!"Gm"G4|!G7!"G7"G4|!Gm7!"Gm7"G4|!Gmaj7!"Gmaj7"G4|!Gsus4!"Gsus4"G4|
!G#!"G#"^G4|!G#m!"G#m"^G4|!G#7!"G#7"^G4|!G#m7!"G#m7"^G4|!G#maj7!"G#maj7"^G4|!G#sus4!"G#sus4"^G4|
!Ab!"Ab"_A4|!Abm!"Abm"_A4|!Ab7!"Ab7"_A4|!Abm7!"Abm7"_A4|!Abmaj7!"Abmaj7"_A4|!Absus4!"Absus4"_A4|
!A!"A"A4|!Am!"Am"A4|!A7!"A7"A4|!Am7!"Am7"A4|!Amaj7!"Amaj7"A4|!Asus4!"Asus4"A4|
!A#!"A#"^A4|!A#m!"A#m"^A4|!A#7!"A#7"^A4|!A#m7!"A#m7"^A4|!A#maj7!"A#maj7"^A4|!A#sus4!"A#sus4"^A4|
!Bb!"Bb"_B4|!Bbm!"Bbm"_B4|!Bb7!"Bb7"_B4|!Bbm7!"Bbm7"_B4|!Bbmaj7!"Bbmaj7"_B4|!Bbsus4!"Bbsus4"_B4|
!B!"B"B4|!Bm!"Bm"B4|!B7!"B7"B4|!Bm7!"Bm7"B4|!Bmaj7!"Bmaj7"B4|!Bsus4!"Bsus4"B4|

