X:1
T:Boil 'em Cabbage Down
C:Traditional American
Q:1/2=120
M:2/2
L:1/4
K:D
|: "II"AA/A/ AA & A,4 | BB/B/ BB & B,4 | AA/A/ AF & A,4 | E4 & E,4 |
AA/A/ AA & A,4 | BB/B/ BB & B,4 | Ac/c/ ec & A,4 |1 d4 & D4 :|2 d3 & x3 ||
|: A & x | dd/d/ fA & D4 | d3A & D4 | dd/d/ cB & D4 |
A3A & A,4 | dd/d/ dd & D4 | BB/B/ BB & B,4 | Ac/c/ ec & A,4 | d3 & D4 :|

