X:1
T:Rondeau A - Dur - Guitar
C:David Kellner
L:1/4
Q:1/2=60
M:C
K:A clef=treble-8
e & z | ("3"c'/"1"b/)(c'/b/) c' "II"g & A,3 E, | ("4"a/"3"g/)(a/g/) a e & F,3 C | ("2"a/"4"b/)(a/b/) "VII"("4"c'/"1"b/)"4"a/"1"b/ & F2 D2 | g e B e & E,4 |
(c'/b/)(c'/b/) c' g & A,3 E, | (a/g/)(a/g/) a e & F,3 C | z/ a/(b/c'/) Pb3/2 a/4b/4 & F D E,2 | a3 & z2 A, :|
|: e & x | c A z e & x2 A, z | c A z e & x2 A, z | z f g a & D4 | Pg2 e g & E,4 | "BII6"a A A a & F,4 |
e B B e & G,4 | z c PB3/2 A/ & A,2 E,2 | A2 z e & x2 A, z | c A z e & x2 A, z | c A z e & x2 A, z |
z f g a & D4 |"^1" Pg2 e g & E,4 | "BII6"a A A a & F,4 | e B B e & G,4 | z c Pd c & A,2 D2 |"^1"{c} B2 z e & G2 E, z |
(c'/b/)(c'/b/) c' g & A,3 E, | (a/g/)(a/g/) a e & F,3 C | (a/b/)(a/b/) (c'/b/)a/b/ & F2 D2 | g e B e & E,4 |
(c'/b/)(c'/b/) c' g & A,3 E, | (a/g/)(a/g/) a e & F,3 C | a (b/c'/) b3/2 a/4b/4 & F D E,2 | a2 z & z2 A, :||: e & x |
B G z e & x2 E, z | B G z e & x2 E, z | f e Pe3/2 ^d/ & A, G, F,2 | "^1"{^d} e2 z e & z2 E D | a A A g & C4 |
f A A f & D4 | e G G d & E4 | c A A e & A,4 | B G z e & z2 E, z |
c A z e & z2 E, z | B G z e & z2 E, z | c A z e & z2 E, z | B B c d & x2 D2 | z e f B & C z D2 |
c2 PB3/2 A/ & E,4 | A2 z e & z2 A, z | (c'/b/)(c'/b/) c' g & A,3 E, | (a/g/)(a/g/) a e & A,3 C | a/b/a/b/ (c'/b/)a/b/ & F2 D2 |
g e B e & E,4 | (c'/b/)(c'/b/) c' g & A,3 E, | (a/g/)(a/g/) a e & F,3 C | z/ a/(b/c'/) Pb3/2 a/4b/4 & F D E,2 | a3 : & z2 A, :|

