X:1
T:Lagrima
C:Francisco Tarrega
L:1/8
Q:1/4=80
M:3/4
K:E clef=treble-8
"^Andante" gB a2/B b2/B & E2 F2 G2 & x6 | f6 & fB AB B,B & D4 B,2 | gB a2/B b2/B & E2 F2 G2 & x6 | f6 & fB AB B,B & D4 B,2 |
e'2 d'2 c'2 & e'e d'e c'f & c2 B2 A2 | b2x4 & bg ce fa & B2 c4 | g2 x4 & ge cf B,[d=A] & B2 ^A2 B,2 | [e4G4] z2 & E2 E,2 & x6 |

!fine! ::$

[K:G] g(c'b)e fg & G4 x2 ::$[K:G] B4 [A^d]2 & E E, z :: [K:G] E,2 B, | e6 & x[Ac] [GB][FA] [EG][FA] & E,3 | [GB]e'xc' Fa & x6 & E, A x | "^C7" [^df]4 Bf & x(B c)B x2 & B,2 z |
g2 a2 b2 & gB aB bB & E F G | (d'c')bagf & x6 & A,3 | e2 f2 x2 & x[GB]x[Ac] BA & x x B,/^D/ | e4 z2!D.C.! : & G4 x2 : & E E, x : | & & 


