X:1
T:Study in E Minor
C:Francisco Tarrega
L:1/8
M:3/4
K:G clef=treble-8
Q:120
(3eBG (3gBG (3gBG & E,6 | (3gcA (3fcA (3fcA & A,6 | (3a^dA (3gdA (3fdA & B,6 | (3bBG (3bBG (3bBG & E,6 |
(3eBG (3gBG (3gBG & E,6 | (3gcA (3fcA (3fcA & A,6 | (3a^dA (3gdA (3fdA & B,6 | e2 !arpeggio![gbe']4 & E,6 :|]
[|:(3eBG (3gBG (3bBG & E,6 | (3bec (3aec (3c'ec & A,6 | (3fcA (3gcA (3adc & D6 | (3aBG (3gBG (3bBG & G,6 |
(3eBG (3gBG (3gBG & E,6 | (3gcA (3fcA (3fcA & A,6 | (3a^dA (3gdA (3fdA & B,6 | e2 !arpeggio![gbe']4 & E,6 :|]
