X: 1
T: Wiegenlied in F
T: Lullaby
C: Johannes Brahms (Op.49 No.4 1868)
M: 3/4
L: 1/8
K: F clef=treble-8
A,A, \
| C3 A, A,2 | C2 z2 A,C | F2 E3 D | D2 C2 G,A, |
| B,2 G,2 G,A, | B,2 z2 G,B, | ED C2 E2 | F2 z2 F,F, |
| F4 DB, | C4 A,F, | B,2 C2 D2 |{A,}C4 F,F, |
| F4 DB, | C4 A,F, | B,2 {CB,}A,2 G,2 | F,4 |]

