X:1
T:Southwell
C:William Daman
L:1/4
M:4/4
K:C
[A] & x & x | [c] [c] [B] [B] & [A,] x [D,] x & x4 | [A]3 [A] & [A,]3 x & x4 |
[c] [c] [d] [d] & [A,] x [F,] x & x4 | [e]3 [e] & [C,]3 x & x4 | [g] [g] [f] [f] & [G,] x [A,] x & x4 |
[e] [e] [d] [e] & C x3 & C x [G,] x | [d] [c] [B] [B] & [D,] x [E,] x & x4 | [EA]3 z & [A,C]3 z & x4 |]
