X:1
T:Lesson 1 - The Right Hand
C:Diana Poulton
L:1/4
M:4/4
K:C clef=treble-8
"p"G,4 | "p"C4 | "p"F4 | "p"A4 | "p"d4 | "p"g4 | 
"p"g4 | "p"d4 | "p"A4 | "p"F4 | "p"C4 | "p"G,4 |
"i"g4 | "i"d4 | "i"A4 | "i"F4 | "i"C4 | "i"G,4 |
"i"G,4 | "i"C4 | "i"F4 | "i"A4 | "i"d4 | "i"g4 | 
"p"g"i"g"p"g"i"g"p"g"i"g"p"g"i"g|"p"d"i"d"p"d"i"d"p"d"i"d"p"d"i"d |
"p"A"i"A"p"A"i"A"p"A"i"A"p"A"i"A|"p"F"i"F"p"F"i"F"p"F"i"F"p"F"i"F |
"p"C"i"C"p"C"i"C"p"C"i"C"p"C"i"C|"p"G,"i"G,"p"G,"i"G,"p"G,"i"G,"p"G,"i"G, |
"p"g"i"g"p"g"i"g"p"g2 "p"g"i"g"p"g"i"g"p"g2 | "p"d"i"d"p"d"i"d"p"d2 "p"d"i"d"p"d"i"d"p"d2 | 
"p"A"i"A"p"A"i"A"p"A2 "p"A"i"A"p"A"i"A"p"A2 | "p"F"i"F"p"F"i"F"p"F2 "p"F"i"F"p"F"i"F"p"F2 | 
"p"C"i"C"p"C"i"C"p"C2 "p"C"i"C"p"C"i"C"p"C2 | "p"G,"i"G,"p"G,"i"G,"p"G,2 "p"G,"i"G,"p"G,"i"G,"p"G,2 | 
"p"g"i"g"p"g2 "p"g"i"g"p"g2 | "p"g/"i"g/"p"g/"i"g/ "p"g"i"g"p"g2 "p"g"i"g |
