X:1
T:Lesson 3.4 - A Toye - Lute
C:Arr. Diana Poulton
L:1/4
M:6/8
K:C clef=treble-8
"m"e2 "i"c "p"e>"i"f"p"g & C6 | "m"a>"i"g"p"a "m"d2 "i"d & F3 G,3 | "m"e>"i"f"p"g "i"g>"i"a"p"b & C3 G,3 | "m"c'2 "i"g "p"e "i"c2 & (C3 C2) C |
e2 c e>fg & C6| a>ga d2 d & F3 G,3 | e>fg g>ab & C3 G,3 | c'2 g ec^a & C6 |
a2 g fd^a & F6 | a2 g fd^a & F6 | a2 g a2 b & (F3 F2) G, | c'2 g ec^a & C6 |
a2 g fd^a & F6| a2 g fd^a & F6 | a2  g a2 b & (F3 F2) G, | c'2 g e c2 & (C3 C2) C |]

