X:1
T:Title
L:1/16
M:4/4
I:linebreak $
K:G
V:1 treble nm="Part 1"
V:1
 !1!GGGG G2G2 dddd d2d2 | eeee e2e2 dddd d2d2 | cccc c2c2 BBBB B2B2 | AAAA A2A2 GGGG G2G2 | %4
 dddd d2d2 !1!cccc c2c2 | !3!BBBB B2B2 AAAA A2A2 | dddd d2d2 cccc c2c2 | BBBB B2B2 AAAA A2A2 | %8
 GGGG G2G2 dddd d2d2 | eeee e2e2 dddd d2d2 | cccc c2c2 BBBB B2B2 | AAAA A2A2 GGGG G2G2 ||$ %12
 !0!G2 G4 G2 d2 d4 d2 | e2 e4 e2 d2 .d4 d2 | !2!c2 c4 c2 B2 B4 B2 | A2 A4 A2 G2 G4 G2 | %16

