X:1
T:Title
L:1/16
M:none
I:linebreak $
K:G
V:1 treble nm="Part 1"
V:1
 G2G2G2 G2!1!G2G2 d2d2d2 d2d2d2 | e2e2e2 e2e2e2 d2d2d2 d2d2d2 |[M:4/4] GGGG GGGG dddd dddd | %3
 eeee eeee dddd dddd | G4 G4 d4 d4 | e4 e4 d8 | c4 !2!c4 !0!B4 !0!B4 | !2!A4 A4 !0!G8 | %8
 d4 d4 !wedge!c4 !wedge!c4 | B4 B4 A8 | d4 d4 c4 c4 | B4 B4 A8 | G4 G4 d4 d4 | e4 e4 d8 | %14
 c4 c4 B4 B4 | A4 A4 G8 ||$[M:4/4][K:C] GGGG G2G2 AAAA A2A2 | !0!BBBB B2B2 !1!cccc c2c2 | %18
 dddd d2d2 !wedge!cccc c2c2 | BBBB B2B2 !2!AAAA A2A2 | !0!G16 || .G4 A4 B4 c4 | d4 c4 B4 A4 | %23
 G16 || %24

