X:1
T:Suzuki - Guitar School - Book 1 - Lesson 5 - May Song
C:Folk Song
L:1/8
M:C
K:G
Q: "Allegro moderato"
[K: clef=treble-8]
G3 B d2 g2|e2 ge d4|c3 d B2 G2|A4 G4|
!mf!d2 d2 c2 c2|B2 dB A4|!p!d2 d2 c2 c2|B2 dB A4|
!f!G3 B d2 g2|e2 ge d4|c3 d B2 G2|A4 G4 :|]
