X:1
T:Lesson 5 - Tonalization in G #2
L:1/16
M:4/4
K:G
[K: clef=treble-8]
GGGG G2G2 AAAA A2A2 | BBBB B2B2 cccc c2c2 |
dddd d2d2 eeee e2e2 | ffff f2f2 gggg g2g2 |
gggg g2g2 ffff f2f2 | eeee e2e2 dddd d2d2 |
cccc c2c2 BBBB B2B2 | AAAA A2A2 GGGG G2G2 |]
G4 A4 B4 c4|d4 e4 f4 g4|g4 f4 e4 d4|c4 B4 A4 G4|]
