X:1
T:Suzuki - Guitar School - Book 1 - Lesson 9 - Are You Sleeping, Brother John?
C:Henry Purcell
L:1/4
M:C
K:D clef=treble-8
!0!D!1!E!3!F!0!D|DEFD|!3!F!4!G!1!A2|FGA2|
!1!A/2!3!B/2!1!A/2!4!G/2 FD|A/2B/2A/2G/2 FD|DA,D2|DA, D2||
|:DEFD|DEFD|!3!F!4!G!1!A2|
FGA2|A/2B/2A/2G/2 FD|A/2B/2A/2G/2 FD|
DA, D2|DA, D2:|DA, D2|DA,D2|]
