X:1
T:Suzuki - Guitar School - Book 1 - Lesson 9 - Tonalizations in D Major
L:1/4
M:C
K:D clef=treble-8
!0!D!1!E!3!F!4!G|!1!A!3!B!1!c!2!d|cBAG|FEDE||D4|]
w:II
!2!d!4!e!1!f!2!g|!4!agfe||!2!d4|]
!0!D!1!E!3!F!4!G|!1!A!3!B!1!c!2!d|!4!e!1!f!2!g!4!a|
gfed|cBAG|FEDE||D4|]
