X:1
T:Suzuki - Guitar School - Book 1 - Lesson 12 - Tanz
C:J.C. Bach
L:1/4
M:3/4
K:D clef=treble-8
"II" !2!d2 !1!f/2!4!a/2|!2!g!1!f!4!e|!1!f!4!e!2!d|!1!c!3!B!1!A|
!2!d2 f/2a/2|gfe|fdc|!2!d2 z1:|]
|:!1!A2 !3!B/2!1!c/2|!2!def|!3!Bcd|!2!c !0!e/2!2!c/2 !1!A|
d2 f/2a/2|gfe|ABc|d2z:|]

