X:1
T:Suzuki - Viola School - Book 1 - Lesson 14 - Etude - A
C:S. Suzuki
L:1/8
M:C
K:C clef=alto
v!mf!!1!E!0!G,!3!C!0!D EG,CD | EGFE DG,DE| FG,DE FG,DE |1 F!4!AGF EG,CD :|
[2 FAGF ECEG|cBAG FEDC|B,G,B,D dcBA|
GFED CG,CD|EG,CD EG,CD|EGFE DCB,A,|G,F,E,D, C,4|]
