X:1
T:Suzuki - Viola School - Book 1 - Lesson 16 - Minuet No. 2
C:J. S. Bach
L:1/8
M:3/4
Q:"Andantino"
K:C clef=alto
!3!!f!v!tenuto!C!1!!tenuto!E!3!!tenuto!G!tenuto!!2!c!0!D!tenuto!!1!B | !tenuto!!2!.c2 (.C2 .C2) | !tenuto!C!tenuto!E!tenuto!G!tenuto!cD!tenuto!B | !tenuto!.c2 (.C2 .C2) |
!4!A2 !4!A2 !0!Ac | !3!G2 G2 Gc | !2!F2 GFEF | D5 |
!tenuto!C!tenuto!E!tenuto!G!tenuto!cD!tenuto!B | !tenuto!.c2 (.C2 .C2) | !tenuto!C!tenuto!E!tenuto!G!tenuto!cD!tenuto!B | !tenuto!.c2 (.C2 .C2) |
!4!A2 GFED | G2 FEDC | (3(DEF) (.G,2 .B,2) | !crescendo(!C6!crescendo)! :|]
|: !p!CDEDCB, | C2 (.A,2 .A,2) | !2!cBAcBA | B2 (.E2 .E2) |
!mf!cBAcBA | B2 (.E2 !0!.A2) | (3(Bcd) (!1!.E2 !3!.^G2) | !4!A2 ^G!0!A B2 |
c2 cBA=G | !4!A2 AGFE | F2 FEDC | B,2 A,B, G,2 |
!p!(!0!vD2 !0!G,2) .G,2 | (!1!E2 !0!G,2) .G,2 | F2 GFEF | D5 |
!f!!tenuto!C!tenuto!E!tenuto!G!tenuto!cD!tenuto!B | !tenuto!.c2 (.C2 .C2) | !tenuto!C!tenuto!E!tenuto!G!tenuto!cD!tenuto!B | !tenuto!.c2 (.C2 .C2) |
!4!A2 GFED | G2 FEDC | (3(DEF) (.G,2 .B,2) | !crescendo(!C6!crescendo)! :|]

