X:1
T:Suzuki - Violin School - Book 1 - Lesson 7 - Long, Long Ago
C:T. H. Bayly
L:1/8
M:4/4
K:A
!mf!!0!A2 AB c2 cd | !0!e2 f!0!e c4 | !4!e2 dc B4 | d2 cB A4 |
!mf!A2 AB c2 cd | !0!e2 f!0!e c4 | !4!e2 dc B2 cB | A4 z4 |
!f!v!0!e2 dc B2 EE | d2 cB A4 | !mp!e2 dc B2 EE | d2 cB A4 |
!mf! A2!<(! AB c2 cd | !0!e2 f!0!e c4 |!>(! !4!e2!<)! dc B2 cB | A4!>)! z4 |]

