X:1
T:Suzuki - Violin School - Book 1 - Lesson 11 - Andantino
C:S. Suzuki
L:1/8
M:C
K:D
!mf! !2!F!3!G !4!A2 GF .E2 | FE .D2 !tenuto!E4 | FG !0!A2 Bc .d2 | dc .B2 !0!A4 |
FG !4!A2 GF .E2 | FE .D2 !tenuto!E4 | FG .A2 Bc .d2 | GF .E2 !0!D4 |
!f! !1!f2 f2 !3!d2 A2 | Bc d2 !0!A4 | !4!e2 d2 c2 B2 |!>(! !4!A2 G2 F2 E2!>)! |
!mf! FG !4!A2 GF .E2 | FE .D2 E4 | FG !0!A2 Bc d2 !fermata!| GF .E2 D4 |]
