X:1
T:Lesson 15 - British Grenadiers
L:1/4
M:C
K:G
V:1
u!f! D | G D G A | B2 A B/c/ | d G B/A/G/F/ | G3 u!p!D |
G D G A | B2 A B/c/ | d G B/A/G/F/ | G3 u!mf!e |
d3/2 e/ d c | B3/2 c/ d d | e e d/c/B/A/ | (G2 F) uD |
!f!G D G A | B2 A B/c/ | d G B/A/G/F/ | G3 |]
