X:1
T:French March - Part 2
L:1/8
M:4/4
K:C
!f!!f! G2 | E2 EE E2 D2 | E4 E2 (CD) | E2 FE D2 ED | CB,CD C2!p! G2 | E2 EE E2 D2 | E4 E2 (CD) |
E2 FE D2 ED | C6!f! (!wedge!CD) | E2 E2 E2 (FE) | D2 D2 D2 (ED) | C2 C2 C2 (B,A,) | B,A,B,C B,2!p! (CD) |
E2 E2 E2 (FE) | D2 D2 D2 (ED) | CB, CD B,3 C | C6!f! G,2 || E2 EE E2 D2 | E4 E2 (.cd) | e2 fe d2 ed |
cBcd c2!p! G2 | E2 EE E2 D2 | E4 E2 (.cd) | e2 fe d2 ed | c6!f! (.cd) | e2 e2 e2 (fe) |
d2 d2 d2 (ed) | c2 c2 c2 (BA) | BABc B2!p! (.cd) | e2 e2 e2!<(! (fe) | d2 d2 d2 (ed)!<)!!f! | cBcd B3 c | c6 |]
