X: 1
T: Ashokan Farewell
C: Jay Ungar
M: 3/4
L: 1/8
R: waltz
K: D
Ac|:d3c BA|F4 EF|G3F ED|B,2D3B,|A,2D2F2|
A2d2f2|f3gf2|e4Ac|d3c BA|F4 EF|G3F ED|
B,2D3B,|A,2D2F2|A2d2f2|A2c2e2|d4FG||A3 FD2|
d4A2|B3cd2|AF3E2|F3ED2|B,4G,2|A,6|A4 FE|
D2F2A2|=c6|B3cd2|A2F3D|1A,2D2F2|Ad3F2|
E3DC2|D4 Ac:|2A,D FA df|ad'3f2|e3Ac2|d6|]

