
X:1
T:Adeste Fideles / O Come All ye Faithful
C:John Francis Wade (1711-1786)
O:England
Z:abc-transcription www.GodSongs.net
M:4/4
L:1/4
K:Fmaj
F|"F" F2 C F|"C" G2 C2|"F" A G A "Bb" B|"F" A2 "C" G F|
w:A-des-te, fi-de-les, lae-ti tri-um-phan-tes; Ve-
w:O come, all ye faith-ful, joy-ful and tri-um-phant, O
"Dm" F2 E "G" D|"C" E F G "F" A|"C" E2 "G7" D>C|"C" C3 z|
w:ni-te, ve-ni_te in Be-th-leh-em.
w:O come ye, O come ye, to Bet-th-le-hem.
"F" c2 B A|"Gm" B2 "F" A2|"C" G A "Gm" F G|"C" E>D CF|
w:Na-tum vi-de-te Re-gem an-ge-lo_rum. Ven-
w:Come and be-hold Him, born the King of angels;__ O
"F" F "C"E "F"F "C"G|"F"F2 C A| A "C"G "F"A "C7"B|"F"A2 "C"G "F"A|
w:i-te a-dor-emus,_ Ven-i-te a-dor-e-mus, Ven-
w:come let us a-dore Him; Oh come let us a_dore Him
"C7"B "F"A "C"G "G7""F" F|"C" E2 "F" F "Bb" B|"F" A2 "C" G>F|"F" F3|]
w:i-te a-dor-e-mus_ Do_mi-num.
w:Oh come let us adore Him,_ Christ,_ the Lord.

