X:1
T:Passamezzo Variations
C:Julie Elhard
L:1/8
M:4/4
I:linebreak $
K:D clef=bass
T:Start with 2nd finger on the 5th fret of the A string.
"^IV""^2" uCCCC .C2 .C2 |"^1" =CCCC .C2 .C2 |"^2" CCCC .C2 .C2 |"^0" _A,A,A,A, .A,2 .A,2 |$ %4
"^2" CCCC .C2 .C2 |"^1" =CCCC .C2 .C2 |"^2" CCCC"^0" ._A,2 .A,2 |"^2" CCCC .C2 .C2 ||$ %8
 .uC2 CC .C2 CC | .=C2 CC .C2 CC | .C2 CC .C2 CC | ._A,2 A,A, .A,2 A,A, |$ .C2 CC .C2 CC | %13
 .=C2 CC .C2 CC | .C2 CC ._A,2 A,A, | C2 CC C2 CC ||$ uCCCC CCCC | =CCCC CCCC |$ CCCC CCCC | %19
 _A,A,A,A, A,A,A,A, | CCCC CCCC |$ =CCCC CCCC | CCCC _A,A,A,A, | CCCC CCCC |] %24

