X:1
T:Foggy Dew
C:Traditional Irish Tune
L:1/8
M:4/4
K:G
(Bd) | e2 (dB) e2 (dB) | A2 B2 D2 (EF) | (GB) (AG) E3 D | E4 z2 (Bd) |
e2 (dB) e2 (dB) | A2 (AB) D2 (EF) | (GB) (AG) E2 (ED) | E4 z2 z D |
G3 B d2 (cB) | AA- A2 B2 (GA) | B2 (gf) (ed) (Bd) | e4 z2 (Bd) |
e2 (dB) e2 (dB) | A(A B2) D2 (EF) | (GB) (AG) EE- (ED) | E6 |]
