X:1
T:Korobeiniki
C:Based on Arr. Bruno Moura
L:1/8
Q:1/4=120
M:4/4
K:C
!mf! B2 Bc d2 e2 & A,8 | c2 A2 e4 & A,8 | d2 de f2 g2 & B,,8 | e2 c2 g4 & C,8 | e8 & A,EAE A,EAE | z8 & A,EAE A,EAE |
|: S[Q:1/4=130]"^Vividly" e2 Bc d2{/d} cB & : A,4 D4 | A2 Ac e2 dc & A,4 D4 | B2 Bc d2 e2 & A,4 D4 | c2 A2 A4 & D4 A,4 |
z d2 f a2 gf & E,4 d A3 | e3 c e2 dc & G A,3 A4 | B2 Bc d2 e2!dacoda! & E4 G,2 A,2 | c2 A2 A2 z2 & A,3 z E2 z2 !fine! :|
[A,e]EA,E [A,c]EA,E & x8 | [B,d]EB,E [B,B]EB,E & x8 | [A,c]EA,E [A,A]EA,E & x8 | [E,^G]EE,E [E,E]EE,E & x8 |
[A,e]EA,E [A,c]EA,E & x8 | [A,d]EA,E [A,B]EA,E & x8 | c2 e2 a4 & A,2 D2 F2 | [A,^g]EA,E !fermata!E,4 & x8 !D.C.! |]
