X:1
T:Korobeiniki
C:Based on Arr. Bruno Moura
L:1/8
Q:1/4=120
M:4/4
K:C
!mf! B2 Bc d2 e2 & A,8 | c2 A2 e4 & A,8 | d2 de f2 g2 & B,8 | e2 c2 g4 & C8 | e8 & A,EAE A,EAE | z8 & A,EAE A,EAE |
|: S[Q:1/4=130]"^Vividly" e2 Bc d2{/d} cB & : A, E3 D E,3 | A2 Ac e2 dc & A, E,3 D E,3 | B2 Bc d2 e2 & A, E,3 D E,3 | c2 A2 A4 & E E,2 E,2 B,CD |
z d2 f a2 gf & E,2 E2 d A3 | e3 c e2 dc & G D3 A D3 | B2 Bc d2 e2!dacoda! & E A,3 G,2 A,2 | c2 A2 A2 z2 & A, E2 z E2 z2 !fine! :|
[A,ce]EA,E [A,Ac]EA,E & x8 | [B,Bd]EB,E [B,^GB]EB,E & x8 | [A,Ac]EA,E [A,A]EA,E & x8 | [E,^GB]EE,E [E,EG]EE,E & x8 |
[A,ce]EA,E [A,Ac]EA,E & x8 | [B,Bd]EB,E [B,^GB]EB,E & x8 | [A,Ac]EA,E [A,e]E[A,cea]D & x8 | [B,d^g]EB,E !fermata!E,4 & x8 !D.C.! |]
