X:1
T:Minuet in G
T:Johann Sebastion Bach (1685-1750)
L:1/8
Q:1/4=112
M:3/4
K:G
"^Moderato" d2 GA Bc & G,4 A,2 | d2 G2 G2 & B,6 | e2 cd ef & C6 | g2 G2 G2 & B,6 |
c2 dc BA & A,6 | B2 cB AG & G,6 | F2 GA BG & A,2 B,2 G,2 | B2 A4 & z2 DC B,A, |
d2 GA Bc & B,4 A,2 | d2 G2 G2 & G,2 B,2 G,2 | e2 cd ef & C6 | g2 G2 G2 & B,2 CB, A,G, |
c2 dc BA & A,4 F,2 | B2 cB AG & G,4 B,2 | A2 BA GF & C2 D2 z2 | G6 : & z2 D2 G,2 :|]
