X:1
T:Silent Night
T:baroque lute
C:Franz Xaver Gruber
C:Arr. Bruno Ferreira
M:3/4
L:1/8
K:D clef=treble-8
"I"A3 "2"B A2 & z2 (D4 | "1"F6 & D6) | A3 B A2 & z2 (D4 | F6 & D6) |
"II""1"e4 "1"e2 & z2 (A,4 | "3"c6 & A,6) | d4 d2 & z2 (F4 | A6 & F6) |
B4 B2 & z2 (G4 | d3 c B2 & G6) | "I"A3 B A2 & z2 (D4 | F6 & D6) |
"II"B4 B2 & z2 (G,4 | d3 c B2 & G,6) | "I"A3 B A2 & z2 (D4 | F6 & D6) |
"II"e4 Ae & z2 (A,4 | g3 e c2 & A,6) | "I"d5 & z D2 F2 | f6 & A6 |
d3 A F2 & z2 D4 | A3 G E2 & z2 A,4 | D2 F2 A2 | d6 |]
