X:1
T:Simple Gifts
C:Shaker Hymn
C:Arr. Bradford C. Werner
L:1/16
M:2/4
K:G clef=treble-8
L:1/4
x/2 & D/4D/4 | G/G//A// B//G//B//c// & [G,B,D] E, | d/d//c// B/A//G// & [B,,DF] E, | A/A/ A/A/ & [A,E] A, |
A//B//A//F// D/D/ & [D,D] F, | G//F//G//A// B/A//A// & [G,B,D] G,/D,/ | B/c/ d/>d/ & [E,EG] B,, |
A/A//B// A/G//G// & [A,E] A, | A/G//F// G & [D,D] [G,B,D] | d B/>A/ & [B,,DF] [E,EG] |
B//c//B//A// G/>A/ & G, C | B/B//c// d/B/ & G, G, | A/A//B// A/>D/ & D, D, | G G/>A/ & [G,B,D] [CE] |
B/B//c// d/B//B// & G, G, | A/A/ B/B//A// & A, D, | G/G/ G & G,/C/ G,  |]
