X:1
T:You Are My Sunshine
T:baroque lute
C:Jimmie Davis and Charles Mitchell
L:1/8
M:2/2
K:D clef=treble-8
Q:75
"II" DADA DAde | [Df]A[Df]A D[A,f]ef | [Dd]A[Dd]A D[A,d]ef |
"V" [Dg]A[Db]A "IV" Dbag | "II" [Df]ADA Ddef | "V" [Dg]A[Db]A "IV" Dbag |
"II" [Df]A[Dd]A DAde | [Df]A[Df]g [De]Aef | "I" [Dd]2 F2 A2 d2 |
[DFAd]4 z2  |]
